{"name":"getUsers","id":"runners.FirstTest:getUsers","scenarioId":"runners.FirstTest:getUsers","testCaseName":"runners.FirstTest","methodName":"getUsers","testSteps":[{"number":1,"description":"Juan get list users","duration":3411,"startTime":"2023-10-25T00:02:17.521933-05:00[America/Bogota]","result":"SUCCESS","precondition":false,"level":0,"children":[{"number":2,"description":"juan executes a GET on the resource api/users?page\u003d1","duration":3360,"startTime":"2023-10-25T00:02:17.566851-05:00[America/Bogota]","result":"SUCCESS","precondition":false,"level":1,"children":[{"number":3,"description":"GET https://reqres.in/api/users?page\u003d1","duration":1,"startTime":"2023-10-25T00:02:20.924529-05:00[America/Bogota]","result":"SUCCESS","restQuery":{"method":"GET","path":"https://reqres.in/api/users?page\u003d1","content":"","contentType":"application/json","requestHeaders":"Accept\u003d*/*\n\t\t\t\tContent-Type\u003dapplication/json","requestCookies":"","responseHeaders":"Date: Wed, 25 Oct 2023 05:02:20 GMT\nContent-Type: application/json; charset\u003dutf-8\nTransfer-Encoding: chunked\nConnection: keep-alive\nReport-To: {\"group\":\"heroku-nel\",\"max_age\":3600,\"endpoints\":[{\"url\":\"https://nel.heroku.com/reports?ts\u003d1698160756\u0026sid\u003dc4c9725f-1ab0-44d8-820f-430df2718e11\u0026s\u003dBtkTDpjpkhqOYkcL88FT5bOm9zHpiI1YRqQqNK%2FJI58%3D\"}]}\nReporting-Endpoints: heroku-nel\u003dhttps://nel.heroku.com/reports?ts\u003d1698160756\u0026sid\u003dc4c9725f-1ab0-44d8-820f-430df2718e11\u0026s\u003dBtkTDpjpkhqOYkcL88FT5bOm9zHpiI1YRqQqNK%2FJI58%3D\nNel: {\"report_to\":\"heroku-nel\",\"max_age\":3600,\"success_fraction\":0.005,\"failure_fraction\":0.05,\"response_headers\":[\"Via\"]}\nX-Powered-By: Express\nAccess-Control-Allow-Origin: *\nEtag: W/\"3e4-2RLXvr5wTg9YQ6aH95CkYoFNuO8\"\nVia: 1.1 vegur\nCache-Control: max-age\u003d14400\nCF-Cache-Status: REVALIDATED\nVary: Accept-Encoding\nServer: cloudflare\nCF-RAY: 81b7e8221a5f5731-MIA\nContent-Encoding: gzip","responseCookies":"","responseBody":"{\n    \"page\": 1,\n    \"per_page\": 6,\n    \"total\": 12,\n    \"total_pages\": 2,\n    \"data\": [\n        {\n            \"id\": 1,\n            \"email\": \"george.bluth@reqres.in\",\n            \"first_name\": \"George\",\n            \"last_name\": \"Bluth\",\n            \"avatar\": \"https://reqres.in/img/faces/1-image.jpg\"\n        },\n        {\n            \"id\": 2,\n            \"email\": \"janet.weaver@reqres.in\",\n            \"first_name\": \"Janet\",\n            \"last_name\": \"Weaver\",\n            \"avatar\": \"https://reqres.in/img/faces/2-image.jpg\"\n        },\n        {\n            \"id\": 3,\n            \"email\": \"emma.wong@reqres.in\",\n            \"first_name\": \"Emma\",\n            \"last_name\": \"Wong\",\n            \"avatar\": \"https://reqres.in/img/faces/3-image.jpg\"\n        },\n        {\n            \"id\": 4,\n            \"email\": \"eve.holt@reqres.in\",\n            \"first_name\": \"Eve\",\n            \"last_name\": \"Holt\",\n            \"avatar\": \"https://reqres.in/img/faces/4-image.jpg\"\n        },\n        {\n            \"id\": 5,\n            \"email\": \"charles.morris@reqres.in\",\n            \"first_name\": \"Charles\",\n            \"last_name\": \"Morris\",\n            \"avatar\": \"https://reqres.in/img/faces/5-image.jpg\"\n        },\n        {\n            \"id\": 6,\n            \"email\": \"tracey.ramos@reqres.in\",\n            \"first_name\": \"Tracey\",\n            \"last_name\": \"Ramos\",\n            \"avatar\": \"https://reqres.in/img/faces/6-image.jpg\"\n        }\n    ],\n    \"support\": {\n        \"url\": \"https://reqres.in/#support-heading\",\n        \"text\": \"To keep ReqRes free, contributions towards server costs are appreciated!\"\n    }\n}","statusCode":200},"precondition":false,"level":2}]}]},{"number":4,"description":"Then The status code is:  should be (200)","duration":33,"startTime":"2023-10-25T00:02:21.015080-05:00[America/Bogota]","result":"SUCCESS","precondition":false,"level":0},{"number":5,"description":"Then The user is not null should be not null","duration":3,"startTime":"2023-10-25T00:02:21.150999-05:00[America/Bogota]","result":"SUCCESS","precondition":false,"level":0},{"number":6,"description":"Then The user email should be \u0027george.bluth@reqres.in\u0027","duration":3,"startTime":"2023-10-25T00:02:21.156746-05:00[America/Bogota]","result":"SUCCESS","precondition":false,"level":0}],"userStory":{"id":"runners.FirstTest","storyName":"FirstTest","displayName":"FirstTest","storyClassName":"runners.FirstTest","path":"runners.FirstTest","pathElements":[{"name":"runners","description":"runners"},{"name":"FirstTest","description":"FirstTest"}],"narrative":"","type":"feature"},"title":"Get users","tags":[{"name":"runners","type":"capability","displayName":"Runners"},{"name":"runners/FirstTest","type":"feature","displayName":"First test"}],"startTime":"2023-10-25T00:02:17.311727-05:00[America/Bogota]","duration":3613,"projectKey":"","driver":"","isManualTestingUpToDate":false,"manual":false,"testSource":"JUnit","actors":[{"name":"juan","can":["call an API at https://reqres.in/"]}],"order":0,"result":"SUCCESS"}