{"name":"As a user, Juan needs to get the list of all users from de users API","id":"validate-the-endopoint-get-list-users;as-a-user--juan-needs-to-get-the-list-of-all-users-from-de-users-api","scenarioId":"GetListUsers:As a user, Juan needs to get the list of all users from de users API","methodName":"As a user, Juan needs to get the list of all users from de users API","testSteps":[{"number":1,"description":"When He consult the list of the users on the API","duration":738,"startTime":"2023-11-19T22:33:24.374711-05:00[America/Bogota]","result":"SUCCESS","precondition":false,"level":0,"children":[{"number":2,"description":"Juan get list users","duration":724,"startTime":"2023-11-19T22:33:24.386178-05:00[America/Bogota]","result":"SUCCESS","precondition":false,"level":1,"children":[{"number":3,"description":"juan executes a GET on the resource api/users?page\u003d1","duration":703,"startTime":"2023-11-19T22:33:24.405846-05:00[America/Bogota]","result":"SUCCESS","precondition":false,"level":2,"children":[{"number":4,"description":"GET https://reqres.in/api/users?page\u003d1","duration":0,"startTime":"2023-11-19T22:33:25.108884-05:00[America/Bogota]","result":"SUCCESS","restQuery":{"method":"GET","path":"https://reqres.in/api/users?page\u003d1","content":"","contentType":"application/json","requestHeaders":"Accept\u003d*/*\n\t\t\t\tContent-Type\u003dapplication/json","requestCookies":"","responseHeaders":"Date: Mon, 20 Nov 2023 03:33:24 GMT\nContent-Type: application/json; charset\u003dutf-8\nTransfer-Encoding: chunked\nConnection: keep-alive\nReport-To: {\"group\":\"heroku-nel\",\"max_age\":3600,\"endpoints\":[{\"url\":\"https://nel.heroku.com/reports?ts\u003d1700398775\u0026sid\u003dc4c9725f-1ab0-44d8-820f-430df2718e11\u0026s\u003dT6vTdUk6e4r8Z7iSSTkKRF483swcyCmARhVzQ0eROq0%3D\"}]}\nReporting-Endpoints: heroku-nel\u003dhttps://nel.heroku.com/reports?ts\u003d1700398775\u0026sid\u003dc4c9725f-1ab0-44d8-820f-430df2718e11\u0026s\u003dT6vTdUk6e4r8Z7iSSTkKRF483swcyCmARhVzQ0eROq0%3D\nNel: {\"report_to\":\"heroku-nel\",\"max_age\":3600,\"success_fraction\":0.005,\"failure_fraction\":0.05,\"response_headers\":[\"Via\"]}\nX-Powered-By: Express\nAccess-Control-Allow-Origin: *\nEtag: W/\"3e4-2RLXvr5wTg9YQ6aH95CkYoFNuO8\"\nVia: 1.1 vegur\nCache-Control: max-age\u003d14400\nCF-Cache-Status: HIT\nAge: 2675\nVary: Accept-Encoding\nServer: cloudflare\nCF-RAY: 828da19f18279ac0-MIA\nContent-Encoding: gzip","responseCookies":"","responseBody":"{\n    \"page\": 1,\n    \"per_page\": 6,\n    \"total\": 12,\n    \"total_pages\": 2,\n    \"data\": [\n        {\n            \"id\": 1,\n            \"email\": \"george.bluth@reqres.in\",\n            \"first_name\": \"George\",\n            \"last_name\": \"Bluth\",\n            \"avatar\": \"https://reqres.in/img/faces/1-image.jpg\"\n        },\n        {\n            \"id\": 2,\n            \"email\": \"janet.weaver@reqres.in\",\n            \"first_name\": \"Janet\",\n            \"last_name\": \"Weaver\",\n            \"avatar\": \"https://reqres.in/img/faces/2-image.jpg\"\n        },\n        {\n            \"id\": 3,\n            \"email\": \"emma.wong@reqres.in\",\n            \"first_name\": \"Emma\",\n            \"last_name\": \"Wong\",\n            \"avatar\": \"https://reqres.in/img/faces/3-image.jpg\"\n        },\n        {\n            \"id\": 4,\n            \"email\": \"eve.holt@reqres.in\",\n            \"first_name\": \"Eve\",\n            \"last_name\": \"Holt\",\n            \"avatar\": \"https://reqres.in/img/faces/4-image.jpg\"\n        },\n        {\n            \"id\": 5,\n            \"email\": \"charles.morris@reqres.in\",\n            \"first_name\": \"Charles\",\n            \"last_name\": \"Morris\",\n            \"avatar\": \"https://reqres.in/img/faces/5-image.jpg\"\n        },\n        {\n            \"id\": 6,\n            \"email\": \"tracey.ramos@reqres.in\",\n            \"first_name\": \"Tracey\",\n            \"last_name\": \"Ramos\",\n            \"avatar\": \"https://reqres.in/img/faces/6-image.jpg\"\n        }\n    ],\n    \"support\": {\n        \"url\": \"https://reqres.in/#support-heading\",\n        \"text\": \"To keep ReqRes free, contributions towards server costs are appreciated!\"\n    }\n}","statusCode":200},"precondition":false,"level":3}]}]}]},{"number":5,"description":"Then He can see that the API returns a status code 200","duration":7,"startTime":"2023-11-19T22:33:25.115235-05:00[America/Bogota]","result":"SUCCESS","precondition":false,"level":0,"children":[{"number":6,"description":"Then The status code should be (200)","duration":1,"startTime":"2023-11-19T22:33:25.118102-05:00[America/Bogota]","result":"SUCCESS","precondition":false,"level":1}]},{"number":7,"description":"And He can see the user list has the correct structure","duration":73,"startTime":"2023-11-19T22:33:25.124039-05:00[America/Bogota]","result":"SUCCESS","precondition":false,"level":0,"children":[{"number":8,"description":"Then The user should be not null","duration":1,"startTime":"2023-11-19T22:33:25.193184-05:00[America/Bogota]","result":"SUCCESS","precondition":false,"level":1},{"number":9,"description":"Then The user email should be \u0027george.bluth@reqres.in\u0027","duration":1,"startTime":"2023-11-19T22:33:25.195888-05:00[America/Bogota]","result":"SUCCESS","precondition":false,"level":1}]}],"userStory":{"id":"GetListUsers","storyName":"Validate the endopoint get List Users","displayName":"Validate the endopoint get List Users","path":"GetListUsers","pathElements":[{"name":"GetListUsers","description":""}],"narrative":"     in the service.","type":"feature"},"title":"As a user, Juan needs to get the list of all users from de users API","description":"","tags":[{"name":"All","type":"tag","displayName":"All"}],"startTime":"2023-11-19T22:33:24.363951-05:00[America/Bogota]","duration":745,"projectKey":"","isManualTestingUpToDate":false,"manual":false,"testSource":"Cucumber","actors":[{"name":"juan","can":["call an API at https://reqres.in/"]}],"order":0,"result":"SUCCESS"}